....
----------------------------------------------------------------------
Ran 4 tests in 0.001s

OK
Name               Stmts   Miss Branch BrPart  Cover   Missing
--------------------------------------------------------------
Diplomacy.py          62      8     46      0    87%   10-19
TestDiplomacy.py      26      0      0      0   100%
--------------------------------------------------------------
TOTAL                 88      8     46      0    90%
