.............
----------------------------------------------------------------------
Ran 13 tests in 0.002s

OK
Name               Stmts   Miss Branch BrPart  Cover   Missing
--------------------------------------------------------------
Diplomacy.py          77      0     44      1    99%   84->exit
TestDiplomacy.py      72      0      0      0   100%
--------------------------------------------------------------
TOTAL                149      0     44      1    99%
